{
	"info": {
		"_postman_id": "cd290039-1321-4250-a1c7-74ea2b729119",
		"name": "HT-SMS",
		"schema": "https://schema.getpostman.com/json/collection/v2.1.0/collection.json"
	},
	"item": [
		{
			"name": "User",
			"item": [
				{
					"name": "Register",
					"request": {
						"method": "POST",
						"header": [
							{
								"key": "Content-Type",
								"value": "application/json",
								"type": "text"
							}
						],
						"body": {
							"mode": "raw",
							"raw": "{\n\t\"email\": \"orange@gmail.com\",\n\t\"password\": \"orange\",\n\t\"phone_number\": 9802112173\n}"
						},
						"url": {
							"raw": "localhost:3000/api/users/create",
							"host": [
								"localhost"
							],
							"port": "3000",
							"path": [
								"api",
								"users",
								"create"
							]
						}
					},
					"response": []
				},
				{
					"name": "Login",
					"request": {
						"method": "POST",
						"header": [
							{
								"key": "Content-Type",
								"value": "application/json",
								"type": "text"
							}
						],
						"body": {
							"mode": "raw",
							"raw": "{\n\t\"email\": \"orange@gmail.com\",\n\t\"password\": \"orange\",\n\t\"phone_number\": 9802112173\n}"
						},
						"url": {
							"raw": "localhost:3000/api/users/login",
							"host": [
								"localhost"
							],
							"port": "3000",
							"path": [
								"api",
								"users",
								"login"
							]
						}
					},
					"response": []
				}
			]
		},
		{
			"name": "Messages",
			"item": [
				{
					"name": "Send Message From Application to Gateway",
					"request": {
						"auth": {
							"type": "bearer",
							"bearer": [
								{
									"key": "token",
									"value": "eyJhbGciOiJIUzI1NiIsInR5cCI6IkpXVCJ9.eyJ1c2VyX2lkIjoxLCJpYXQiOjE1NjE3MTUwNTEsImV4cCI6MTU2MTcyNTA1MX0.--5m7JFWkeFDvevfctND3GQBU8WakvpRNzFzoWVZ4zE",
									"type": "string"
								}
							]
						},
						"method": "POST",
						"header": [
							{
								"key": "Content-Type",
								"value": "application/json",
								"type": "text"
							}
						],
						"body": {
							"mode": "raw",
							"raw": "[\n  {\n    \"phone_number\": \"07791064781\",\n    \"messages\": \"Hello World\",\n    \"device_id\": 1\n  },\n  {\n    \"phone_number\": \"07791064781\",\n    \"messages\": \"Hello World\",\n    \"device_id\": 1\n  }\n]\n"
						},
						"url": {
							"raw": "http://smsgateway.himalayanhackers.com/api/messages/send",
							"protocol": "http",
							"host": [
								"smsgateway",
								"himalayanhackers",
								"com"
							],
							"path": [
								"api",
								"messages",
								"send"
							]
						}
					},
					"response": []
				},
				{
					"name": "Cancel Messages",
					"request": {
						"method": "PUT",
						"header": [
							{
								"key": "Content-Type",
								"value": "application/json",
								"type": "text"
							}
						],
						"body": {
							"mode": "raw",
							"raw": "[\n  {\n    \"message_id\": 59484209\n  },\n  {\n    \"message_id\": 59484210\n  },\n  {\n    \"message_id\": 59484211\n  }\n]"
						},
						"url": {
							"raw": "localhost:3000/api/messages/cancel",
							"host": [
								"localhost"
							],
							"port": "3000",
							"path": [
								"api",
								"messages",
								"cancel"
							]
						}
					},
					"response": []
				},
				{
					"name": "Get Messages From Gateway to App",
					"request": {
						"auth": {
							"type": "bearer",
							"bearer": [
								{
									"key": "token",
									"value": "eyJhbGciOiJIUzI1NiIsInR5cCI6IkpXVCJ9.eyJ1c2VyX2lkIjoxLCJpYXQiOjE1NjE3MTUwNTEsImV4cCI6MTU2MTcyNTA1MX0.--5m7JFWkeFDvevfctND3GQBU8WakvpRNzFzoWVZ4zE",
									"type": "string"
								}
							]
						},
						"method": "GET",
						"header": [
							{
								"key": "Content-Type",
								"value": "application/json",
								"type": "text"
							}
						],
						"url": {
							"raw": "localhost:3000/api/messages/1",
							"host": [
								"localhost"
							],
							"port": "3000",
							"path": [
								"api",
								"messages",
								"1"
							]
						}
					},
					"response": []
				},
				{
					"name": "Get Last Message ID",
					"request": {
						"method": "GET",
						"header": [],
						"url": {
							"raw": ""
						}
					},
					"response": []
				},
				{
					"name": "Read msg from App and sent to gateway",
					"request": {
						"auth": {
							"type": "bearer",
							"bearer": [
								{
									"key": "token",
									"value": "eyJhbGciOiJIUzI1NiIsInR5cCI6IkpXVCJ9.eyJ1c2VyX2lkIjoxLCJpYXQiOjE1NjE3MTUwNTEsImV4cCI6MTU2MTcyNTA1MX0.--5m7JFWkeFDvevfctND3GQBU8WakvpRNzFzoWVZ4zE",
									"type": "string"
								}
							]
						},
						"method": "POST",
						"header": [
							{
								"key": "Content-Type",
								"value": "application/json",
								"type": "text"
							}
						],
						"body": {
							"mode": "raw",
							"raw": "{\n\t\"device_id\": 1,\n\t \"inbox_messages\": [\n\t  {\n\t\t\t\"message_id\": \"912\",\n\t\t\t\"messages\": \"text\",\n\t\t\t\"phone_number\": \"9843007618\"\n\t\t},\n\t\t{\n\t\t\t\"message_id\": \"913\",\n\t\t\t\"messages\": \"text\",\n\t\t\t\"phone_number\": \"1455\"\n\t\t}\n\t]\n\t\n}"
						},
						"url": {
							"raw": "{{url}}/users/sendInboxText",
							"host": [
								"{{url}}"
							],
							"path": [
								"users",
								"sendInboxText"
							]
						}
					},
					"response": []
				},
				{
					"name": "Update data from App to Gateway",
					"request": {
						"method": "GET",
						"header": [],
						"url": {
							"raw": ""
						}
					},
					"response": []
				},
				{
					"name": "Get Received Data",
					"request": {
						"method": "GET",
						"header": [],
						"url": {
							"raw": ""
						}
					},
					"response": []
				}
			]
		}
	]
}